Text analysis of a mid-semester course survey | Andreas Handel
…
So this is likely not too useful, but I wanted to play around with some automated text analysis. Maybe the computer can figure out things I can’t?

I don’t actually know how to do text analysis, so I’ll have to peek at the tidytext tutorial. Getting some ideas from this tutorial and the Text Mining with R book.

Turn all answers into a long dataframe of words

d2 <- d %>% tidyr::pivot_longer(cols = starts_with('Q'), names_to ="question", values_to = "answers") %>% 
            drop_na() %>%
            unnest_tokens(word, answers, token = "words")

Look at most frequent words.

d2 %>%  count(word, sort = TRUE) 

## # A tibble: 835 x 2
##    word      n
##    <chr> <int>
##  1 the     215
##  2 i       134
##  3 to      126
##  4 and      90
##  5 of       81
##  6 a        75
##  7 is       59
##  8 in       57
##  9 that     48
## 10 are      47
## # ... with 825 more rows
…
